\relax 
\providecommand\hyper@newdestlabel[2]{}
\@writefile{toc}{\contentsline {section}{Kasutatud kirjandus}{6}{section*.3}}
\newlabel{url:ruby}{{1.1}{6}{Kasutatud kirjandus}{section*.3}{}}
\newlabel{url:hotframeworks}{{1.1}{6}{Kasutatud kirjandus}{section*.3}{}}
\newlabel{url:stackoverflow}{{1.1}{6}{Kasutatud kirjandus}{section*.3}{}}
\newlabel{url:vagrant}{{1.1}{6}{Kasutatud kirjandus}{section*.3}{}}
\newlabel{url:teadus-too}{{1.1}{6}{Kasutatud kirjandus}{section*.3}{}}
\newlabel{url:ruby-on-rails}{{1.1}{6}{Kasutatud kirjandus}{section*.3}{}}
\newlabel{url:rails-composer}{{1.1}{6}{Kasutatud kirjandus}{section*.3}{}}
\newlabel{url:rails-databases}{{1.1}{6}{Kasutatud kirjandus}{section*.3}{}}
\newlabel{url:latex}{{1.1}{6}{Kasutatud kirjandus}{section*.3}{}}
\newlabel{url:twitter-ror}{{1.1}{6}{Kasutatud kirjandus}{section*.3}{}}
\@writefile{toc}{\contentsline {section}{M\IeC {\~o}isted}{6}{section*.4}}
\newlabel{expl:mvc}{{1.1}{6}{Mõisted}{section*.4}{}}
\newlabel{expl:coc}{{1.1}{6}{Mõisted}{section*.4}{}}
\newlabel{expl:controller}{{1.1}{6}{Mõisted}{section*.4}{}}
\newlabel{expl:model}{{1.1}{6}{Mõisted}{section*.4}{}}
\newlabel{expl:view}{{1.1}{6}{Mõisted}{section*.4}{}}
\@setckpt{kasutatud-kirjandus}{
\setcounter{page}{8}
\setcounter{equation}{0}
\setcounter{enumi}{0}
\setcounter{enumii}{0}
\setcounter{enumiii}{0}
\setcounter{enumiv}{0}
\setcounter{footnote}{0}
\setcounter{mpfootnote}{0}
\setcounter{part}{0}
\setcounter{chapter}{0}
\setcounter{section}{1}
\setcounter{subsection}{1}
\setcounter{subsubsection}{0}
\setcounter{paragraph}{0}
\setcounter{subparagraph}{0}
\setcounter{figure}{0}
\setcounter{table}{0}
\setcounter{cp@cntr}{0}
\setcounter{Item}{0}
\setcounter{Hfootnote}{0}
\setcounter{bookmark@seq@number}{5}
\setcounter{lstnumber}{1}
\setcounter{BibCnt}{0}
\setcounter{section@level}{0}
\setcounter{lstlisting}{0}
\setcounter{maskedRefs}{0}
}
