\relax 
\providecommand\hyper@newdestlabel[2]{}
\providecommand\HyperFirstAtBeginDocument{\AtBeginDocument}
\HyperFirstAtBeginDocument{\ifx\hyper@anchor\@undefined
\global\let\oldcontentsline\contentsline
\gdef\contentsline#1#2#3#4{\oldcontentsline{#1}{#2}{#3}}
\global\let\oldnewlabel\newlabel
\gdef\newlabel#1#2{\newlabelxx{#1}#2}
\gdef\newlabelxx#1#2#3#4#5#6{\oldnewlabel{#1}{{#2}{#3}}}
\AtEndDocument{\ifx\hyper@anchor\@undefined
\let\contentsline\oldcontentsline
\let\newlabel\oldnewlabel
\fi}
\fi}
\global\let\hyper@last\relax 
\gdef\HyperFirstAtBeginDocument#1{#1}
\providecommand\HyField@AuxAddToFields[1]{}
\providecommand\HyField@AuxAddToCoFields[2]{}
\@input{tiitel-leht.aux}
\@input{autori-deklaratsioon.aux}
\@input{lihtlitsents.aux}
\@input{sissejuhatus.aux}
\@input{sisu1.aux}
\bibdata{./Viited/library.bib}
\bibcite{Boyd2007}{\citeauthoryear {Boyd\ \BBA{} Ellison}{Boyd\ \BBA{} Ellison}{{\APACyear {2007}}}}
\APACbibcite{Boyd2007}{\citeauthoryear {Boyd\ \BBA{} Ellison}{Boyd\ \BBA{} Ellison}{{\APACyear {2007}}}}
\bibcite{Freeman2014}{\citeauthoryear {Freeman}{Freeman}{{\APACyear {2014}}}}
\APACbibcite{Freeman2014}{\citeauthoryear {Freeman}{Freeman}{{\APACyear {2014}}}}
\bibcite{Mikowski2013}{\citeauthoryear {Mikowski\ \BBA{} Powell}{Mikowski\ \BBA{} Powell}{{\APACyear {2013}}}}
\APACbibcite{Mikowski2013}{\citeauthoryear {Mikowski\ \BBA{} Powell}{Mikowski\ \BBA{} Powell}{{\APACyear {2013}}}}
\bibcite{KasparTint}{\citeauthoryear {Tint}{Tint}{{\APACyear {2015}}}}
\APACbibcite{KasparTint}{\citeauthoryear {Tint}{Tint}{{\APACyear {2015}}}}
\bibstyle{apacite}
\@writefile{toc}{\contentsline {section}{Kasutatud kirjandus}{26}{section*.3}}
\@input{summary.aux}
