\relax 
\providecommand\hyper@newdestlabel[2]{}
\citation{Mikowski2013}
\@writefile{toc}{\contentsline {section}{Sissejuhatus}{5}{section*.2}}
\newlabel{sssec:sissejuhatus}{{}{5}{Sissejuhatus}{section*.2}{}}
\@setckpt{sissejuhatus}{
\setcounter{page}{6}
\setcounter{equation}{0}
\setcounter{enumi}{0}
\setcounter{enumii}{0}
\setcounter{enumiii}{0}
\setcounter{enumiv}{0}
\setcounter{footnote}{0}
\setcounter{mpfootnote}{0}
\setcounter{part}{0}
\setcounter{chapter}{0}
\setcounter{section}{0}
\setcounter{subsection}{0}
\setcounter{subsubsection}{0}
\setcounter{paragraph}{0}
\setcounter{subparagraph}{0}
\setcounter{figure}{0}
\setcounter{table}{0}
\setcounter{cp@cntr}{0}
\setcounter{Item}{0}
\setcounter{Hfootnote}{0}
\setcounter{bookmark@seq@number}{1}
\setcounter{lstnumber}{1}
\setcounter{BibCnt}{0}
\setcounter{section@level}{0}
\setcounter{lstlisting}{0}
\setcounter{maskedRefs}{0}
}
