\relax 
\providecommand\hyper@newdestlabel[2]{}
\@writefile{toc}{\contentsline {section}{\numberline {1}\IeC {\"U}helerakendus}{6}{section.0.1}}
\citation{Freeman2014}
\@writefile{toc}{\contentsline {subsection}{\numberline {1.1}Tehnoloogiate valik \IeC {\"u}heleherakenduse loomiseks}{7}{subsection.0.1.1}}
\citation{Boyd2007}
\@writefile{toc}{\contentsline {section}{\numberline {2}Rakenduse idee}{10}{section.0.2}}
\citation{KasparTint}
\@writefile{toc}{\contentsline {section}{\numberline {3}Arenduse plaan}{11}{section.0.3}}
\@writefile{toc}{\contentsline {subsection}{\numberline {3.1}Ruby on Rails valik}{12}{subsection.0.3.1}}
\newlabel{lst:label1}{{1}{14}{./app/contollers/application\_controller.rb}{lstlisting.0.1}{}}
\@writefile{lol}{\contentsline {lstlisting}{\numberline {1}./app/contollers/application\_controller.rb}{14}{lstlisting.0.1}}
\@writefile{toc}{\contentsline {section}{\numberline {4}Rakenduse loomine}{16}{section.0.4}}
\newlabel{lst:label2}{{2}{16}{./Gemfile}{lstlisting.0.2}{}}
\@writefile{lol}{\contentsline {lstlisting}{\numberline {2}./Gemfile}{16}{lstlisting.0.2}}
\newlabel{lst:label3}{{3}{17}{./app/views/layouts/application.html.erb}{lstlisting.0.3}{}}
\@writefile{lol}{\contentsline {lstlisting}{\numberline {3}./app/views/layouts/application.html.erb}{17}{lstlisting.0.3}}
\@writefile{toc}{\contentsline {subsection}{\numberline {4.1}Andmete \IeC {\"u}htsele standardile viimine}{19}{subsection.0.4.1}}
\newlabel{lst:label4}{{4}{20}{./app/serializers/user\_simple\_serializer.rb}{lstlisting.0.4}{}}
\@writefile{lol}{\contentsline {lstlisting}{\numberline {4}./app/serializers/user\_simple\_serializer.rb}{20}{lstlisting.0.4}}
\@writefile{toc}{\contentsline {subsection}{\numberline {4.2}Probleemid rakenduse arendamisel}{20}{subsection.0.4.2}}
\newlabel{lst:label5}{{5}{21}{../angular/controllers/content/likes/likeForm.coffee}{lstlisting.0.5}{}}
\@writefile{lol}{\contentsline {lstlisting}{\numberline {5}../angular/controllers/content/likes/likeForm.coffee}{21}{lstlisting.0.5}}
\@writefile{toc}{\contentsline {subsection}{\numberline {4.3}Rakenduse k\IeC {\"a}ivitamine lokaalselt}{22}{subsection.0.4.3}}
\@writefile{lof}{\contentsline {figure}{\numberline {1}{\ignorespaces Autentimise leht}}{23}{figure.0.1}}
\@writefile{toc}{\contentsline {section}{Kokkuv\IeC {\~o}te}{24}{section*.3}}
\@setckpt{sisu1}{
\setcounter{page}{26}
\setcounter{equation}{0}
\setcounter{enumi}{4}
\setcounter{enumii}{0}
\setcounter{enumiii}{0}
\setcounter{enumiv}{0}
\setcounter{footnote}{0}
\setcounter{mpfootnote}{0}
\setcounter{part}{0}
\setcounter{chapter}{0}
\setcounter{section}{4}
\setcounter{subsection}{3}
\setcounter{subsubsection}{0}
\setcounter{paragraph}{0}
\setcounter{subparagraph}{0}
\setcounter{figure}{1}
\setcounter{table}{0}
\setcounter{cp@cntr}{0}
\setcounter{Item}{4}
\setcounter{Hfootnote}{0}
\setcounter{bookmark@seq@number}{11}
\setcounter{lstnumber}{5}
\setcounter{BibCnt}{0}
\setcounter{section@level}{0}
\setcounter{lstlisting}{5}
\setcounter{maskedRefs}{0}
}
