\relax 
\providecommand\hyper@newdestlabel[2]{}
\@writefile{toc}{\contentsline {section}{\numberline {5}Rakenduse loomine}{15}{section.0.5}}
\newlabel{lst:label2}{{3}{15}{./Gemfile}{lstlisting.0.3}{}}
\@writefile{lol}{\contentsline {lstlisting}{\numberline {3}./Gemfile}{15}{lstlisting.0.3}}
\@setckpt{sisu2}{
\setcounter{page}{16}
\setcounter{equation}{0}
\setcounter{enumi}{4}
\setcounter{enumii}{0}
\setcounter{enumiii}{0}
\setcounter{enumiv}{0}
\setcounter{footnote}{0}
\setcounter{mpfootnote}{0}
\setcounter{part}{0}
\setcounter{chapter}{0}
\setcounter{section}{5}
\setcounter{subsection}{0}
\setcounter{subsubsection}{0}
\setcounter{paragraph}{0}
\setcounter{subparagraph}{0}
\setcounter{figure}{0}
\setcounter{table}{0}
\setcounter{cp@cntr}{0}
\setcounter{Item}{4}
\setcounter{Hfootnote}{0}
\setcounter{bookmark@seq@number}{8}
\setcounter{lstnumber}{6}
\setcounter{BibCnt}{0}
\setcounter{section@level}{0}
\setcounter{lstlisting}{3}
\setcounter{maskedRefs}{0}
}
